m;n;
0.026;-314.1;23.69199999999995; 
0.026;-314.1;23.769999999999982; 
0.026;-314.1;23.74399999999997; 
0.026;-314.1;23.769999999999982; 
0.026;-314.1;23.769999999999982; 
0.026;-314.1;23.821999999999946; 
0.026;-314.1;23.795999999999935; 
0.026;-314.1;23.71799999999996; 
0.026;-314.1;23.795999999999935; 
0.026;-314.1;23.769999999999982; 
0.026;-314.1;23.873999999999967; 
0.026;-314.1;23.74399999999997; 
0.026;-314.1;23.769999999999982; 
0.026;-314.1;23.873999999999967; 
0.026;-314.1;23.795999999999935; 
0.026;-314.1;23.769999999999982; 
0.026;-314.1;23.69199999999995; 
0.026;-314.1;23.769999999999982; 
0.026;-314.1;23.74399999999997; 
0.026;-314.1;23.769999999999982; 
0.026;-314.1;23.66599999999994; 
0.026;-314.1;23.69199999999995; 
0.026;-314.1;23.74399999999997; 
0.026;-314.1;23.847999999999956; 
0.026;-314.1;23.71799999999996; 
0.026;-314.1;23.71799999999996; 
0.026;-314.1;23.769999999999982; 
0.026;-314.1;23.769999999999982; 
0.026;-314.1;23.769999999999982; 
0.026;-314.1;23.795999999999935; 
0.026;-314.1;23.74399999999997; 
0.026;-314.1;23.71799999999996; 
0.026;-314.1;23.71799999999996; 
0.026;-314.1;23.873999999999967; 
0.026;-314.1;23.795999999999935; 
0.026;-314.1;23.769999999999982; 
0.026;-314.1;23.74399999999997; 
0.026;-314.1;23.847999999999956; 
0.026;-314.1;23.821999999999946; 
0.026;-314.1;23.769999999999982; 
0.026;-314.1;23.795999999999935; 
0.026;-314.1;23.69199999999995; 
0.026;-314.1;23.769999999999982; 
0.026;-314.1;23.873999999999967; 
0.026;-314.1;23.769999999999982; 
0.026;-314.1;23.821999999999946; 
0.026;-314.1;23.821999999999946; 
0.026;-314.1;23.847999999999956; 
0.026;-314.1;23.795999999999935; 
0.026;-314.1;23.821999999999946; 
0.026;-314.1;23.71799999999996; 
0.026;-314.1;23.74399999999997; 
0.026;-314.1;23.795999999999935; 
0.026;-314.1;23.769999999999982; 
0.026;-314.1;23.74399999999997; 
0.026;-314.1;23.795999999999935; 
0.026;-314.1;23.769999999999982; 
0.026;-314.1;23.795999999999935; 
0.026;-314.1;23.795999999999935; 
0.026;-314.1;23.769999999999982; 
0.026;-314.1;23.795999999999935; 
0.026;-314.1;23.821999999999946; 
0.026;-314.1;23.769999999999982; 
0.026;-314.1;23.71799999999996; 
0.026;-314.1;23.74399999999997; 
0.026;-314.1;23.74399999999997; 
0.026;-314.1;23.821999999999946; 
0.026;-314.1;23.71799999999996; 
0.026;-314.1;23.795999999999935; 
0.026;-314.1;23.71799999999996; 
0.026;-314.1;23.71799999999996; 
0.026;-314.1;23.69199999999995; 
0.026;-314.1;23.769999999999982; 
0.026;-314.1;23.769999999999982; 
0.026;-314.1;23.69199999999995; 
0.026;-314.1;23.769999999999982; 
0.026;-314.1;23.795999999999935; 
0.026;-314.1;23.821999999999946; 
0.026;-314.1;23.74399999999997; 
0.026;-314.1;23.821999999999946; 
0.026;-314.1;23.71799999999996; 
0.026;-314.1;23.74399999999997; 
0.026;-314.1;23.74399999999997; 
0.026;-314.1;23.74399999999997; 
0.026;-314.1;23.71799999999996; 
0.026;-314.1;23.821999999999946; 
0.026;-314.1;23.795999999999935; 
0.026;-314.1;23.821999999999946; 
0.026;-314.1;23.821999999999946; 
0.026;-314.1;23.795999999999935; 
0.026;-314.1;23.769999999999982; 
0.026;-314.1;23.74399999999997; 
0.026;-314.1;23.795999999999935; 
