frequencies;rsense;ingain;outgain;dcbiasP;dcbiasN;contacts;modevi;harmonic;inport;outport;filter;phaseShift;VadcI;VadcQ;Conductance;Susceptance;Zmod;ZPha;Rp;Cp;Lp;Current[mA];Voltage[mV]
78125.0;50000;40;7;0;0;TWO;VOUT_IIN;FIRST_HARMONIC;PORT5;PORT5;16;Quadrants,0,IN_PHASE;720.0;0.0;3.451456772742693E-8;-0.0;2.8973273195751257E7;0.0;2.8973273195751254E7;-0.0; - ;3.076171875E-5;1.5380859375
39062.5;50000;40;7;0;0;TWO;VOUT_IIN;FIRST_HARMONIC;PORT5;PORT5;16;Quadrants,0,IN_PHASE;372.0;0.0;1.7832526659170578E-8;-0.0;5.607730295951857E7;0.0;5.607730295951857E7;-0.0; - ;1.58935546875E-5;0.794677734375
78125.0;50000;40;4;0;0;TWO;VOUT_IIN;FIRST_HARMONIC;PORT5;PORT5;16;Quadrants,0,IN_PHASE;294.0;0.0;5.637379395479731E-8;-0.0;1.7738738691276282E7;0.0;1.7738738691276282E7;-0.0; - ;1.256103515625E-5;0.6280517578125
39062.5;50000;40;4;0;0;TWO;VOUT_IIN;FIRST_HARMONIC;PORT5;PORT5;16;Quadrants,0,IN_PHASE;156.0;0.0;2.9912625363770006E-8;0.0;3.343069984125145E7;0.0;3.3430699841251455E7;0.0; - ;6.6650390625E-6;0.333251953125
78125.0;50000;40;3;0;0;TWO;VOUT_IIN;FIRST_HARMONIC;PORT5;PORT5;16;Quadrants,0,IN_PHASE;282.0;0.0;6.759102846621106E-8;-0.0;1.4794862908468729E7;0.0;1.4794862908468729E7;-0.0; - ;1.204833984375E-5;0.6024169921875
39062.5;50000;40;3;0;0;TWO;VOUT_IIN;FIRST_HARMONIC;PORT5;PORT5;16;Quadrants,0,IN_PHASE;142.0;0.0;3.4035198731212663E-8;0.0;2.9381347466113955E7;0.0;2.938134746611395E7;0.0; - ;6.06689453125E-6;0.3033447265625
78125.0;50000;40;7;0;0;TWO;VOUT_IIN;FIRST_HARMONIC;PORT5;PORT5;16;Quadrants,0,IN_PHASE;720.5;0.0;3.453853617723764E-8;0.0;2.895318077328541E7;0.0;2.895318077328541E7;0.0; - ;3.07830810546875E-5;1.539154052734375
39062.5;50000;40;7;0;0;TWO;VOUT_IIN;FIRST_HARMONIC;PORT5;PORT5;16;Quadrants,0,IN_PHASE;373.5;0.0;1.7904432008602716E-8;0.0;5.585299374768049E7;0.0;5.585299374768049E7;0.0; - ;1.59576416015625E-5;0.797882080078125
78125.0;50000;40;4;0;0;TWO;VOUT_IIN;FIRST_HARMONIC;PORT5;PORT5;16;Quadrants,0,IN_PHASE;301.5;0.0;5.78119009434401E-8;0.0;1.7308186781293847E7;0.0;1.7308186781293847E7;0.0; - ;1.28814697265625E-5;0.644073486328125
39062.5;50000;40;4;0;0;TWO;VOUT_IIN;FIRST_HARMONIC;PORT5;PORT5;16;Quadrants,0,IN_PHASE;161.0;0.0;3.087136335619853E-8;0.0;3.2392479349287122E7;0.0;3.2392479349287122E7;0.0; - ;6.878662109375E-6;0.34393310546875
78125.0;50000;40;3;0;0;TWO;VOUT_IIN;FIRST_HARMONIC;PORT5;PORT5;16;Quadrants,0,IN_PHASE;274.0;0.0;6.5673552481354E-8;0.0;1.5239821191430194E7;0.0;1.5239821191430194E7;0.0; - ;1.170654296875E-5;0.5853271484375
39062.5;50000;40;3;0;0;TWO;VOUT_IIN;FIRST_HARMONIC;PORT5;PORT5;16;Quadrants,0,IN_PHASE;147.0;0.0;3.523362122174832E-8;0.0;2.838198190604205E7;0.0;2.838198190604205E7;0.0; - ;6.280517578125E-6;0.31402587890625
78125.0;50000;40;7;0;0;TWO;VOUT_IIN;FIRST_HARMONIC;PORT5;PORT5;16;Quadrants,0,IN_PHASE;730.6666666666666;0.0;3.502589465672214E-8;0.0;2.8561222468892854E7;0.0;2.8561222468892854E7;0.0; - ;3.1217447916666664E-5;1.5608723958333333
39062.5;50000;40;7;0;0;TWO;VOUT_IIN;FIRST_HARMONIC;PORT5;PORT5;16;Quadrants,0,IN_PHASE;382.6666666666667;0.0;1.8343853588465792E-8;0.0;5.457594155160487E7;0.0;5.457594155160487E7;0.0; - ;1.634928385416667E-5;0.8174641927083334
78125.0;50000;40;4;0;0;TWO;VOUT_IIN;FIRST_HARMONIC;PORT5;PORT5;16;Quadrants,0,IN_PHASE;309.6666666666667;0.0;5.93778396644067E-8;0.0;1.6871295456685904E7;0.0;1.6871295456685904E7;0.0; - ;1.3230387369791668E-5;0.6615193684895834
39062.5;50000;40;4;0;0;TWO;VOUT_IIN;FIRST_HARMONIC;PORT5;PORT5;16;Quadrants,0,IN_PHASE;170.0;0.0;3.259709174256988E-8;0.0;3.0763807203233577E7;0.0;3.0763807203233577E7;0.0; - ;7.26318359375E-6;0.3631591796875
78125.0;50000;40;3;0;0;TWO;VOUT_IIN;FIRST_HARMONIC;PORT5;PORT5;16;Quadrants,0,IN_PHASE;273.3333333333333;0.0;6.551376281594926E-8;0.0;1.5272811358242901E7;0.0;1.5272811358242901E7;0.0; - ;1.1678059895833333E-5;0.5839029947916666
39062.5;50000;40;3;0;0;TWO;VOUT_IIN;FIRST_HARMONIC;PORT5;PORT5;16;Quadrants,0,IN_PHASE;152.5;0.0;3.6551885961337544E-8;0.0;2.739400152323679E7;0.0;2.739400152323679E7;0.0; - ;6.5155029296875E-6;0.325775146484375
78125.0;50000;40;7;0;0;TWO;VOUT_IIN;FIRST_HARMONIC;PORT5;PORT5;16;Quadrants,0,IN_PHASE;742.5;0.0;3.5593147968909014E-8;0.0;2.8124244840403862E7;0.0;2.8124244840403862E7;0.0; - ;3.17230224609375E-5;1.586151123046875
39062.5;50000;40;7;0;0;TWO;VOUT_IIN;FIRST_HARMONIC;PORT5;PORT5;16;Quadrants,0,IN_PHASE;393.0;0.0;1.883920155122053E-8;0.0;5.323193063359805E7;0.0;5.323193063359805E7;0.0; - ;1.6790771484375E-5;0.83953857421875
78125.0;50000;40;4;0;0;TWO;VOUT_IIN;FIRST_HARMONIC;PORT5;PORT5;16;Quadrants,0,IN_PHASE;311.25;0.0;5.968144002867573E-8;0.0;1.6779412395706855E7;0.0;1.6779412395706855E7;0.0; - ;1.329803466796875E-5;0.6649017333984375
39062.5;50000;40;4;0;0;TWO;VOUT_IIN;FIRST_HARMONIC;PORT5;PORT5;16;Quadrants,0,IN_PHASE;169.66666666666666;0.0;3.253317587640798E-8;0.0;3.079557398407924E7;0.0;3.079557398407924E7;0.0; - ;7.248942057291666E-6;0.3624471028645833
78125.0;50000;40;3;0;0;TWO;VOUT_IIN;FIRST_HARMONIC;PORT5;PORT5;16;Quadrants,0,IN_PHASE;278.25;0.0;6.669221159830932E-8;0.0;1.5014464610992912E7;0.0;1.5014464610992912E7;0.0; - ;1.188812255859375E-5;0.5944061279296875
39062.5;50000;40;3;0;0;TWO;VOUT_IIN;FIRST_HARMONIC;PORT5;PORT5;16;Quadrants,0,IN_PHASE;153.66666666666666;0.0;3.683151787579587E-8;0.0;2.7177520973158244E7;0.0;2.7177520973158244E7;0.0; - ;6.565348307291666E-6;0.3282674153645833
