m;n;
0.026;-314.1;22.67799999999994; 
0.026;-314.1;22.67799999999994; 
0.026;-314.1;22.651999999999987; 
0.026;-314.1;22.67799999999994; 
0.026;-314.1;22.625999999999976; 
0.026;-314.1;22.70399999999995; 
0.026;-314.1;22.755999999999972; 
0.026;-314.1;22.72999999999996; 
0.026;-314.1;22.755999999999972; 
0.026;-314.1;22.67799999999994; 
0.026;-314.1;22.755999999999972; 
0.026;-314.1;22.67799999999994; 
0.026;-314.1;22.67799999999994; 
0.026;-314.1;22.651999999999987; 
0.026;-314.1;22.67799999999994; 
0.026;-314.1;22.651999999999987; 
0.026;-314.1;22.72999999999996; 
0.026;-314.1;22.781999999999982; 
0.026;-314.1;22.651999999999987; 
0.026;-314.1;22.755999999999972; 
0.026;-314.1;22.72999999999996; 
0.026;-314.1;22.70399999999995; 
0.026;-314.1;22.573999999999955; 
0.026;-314.1;22.70399999999995; 
0.026;-314.1;22.651999999999987; 
0.026;-314.1;22.755999999999972; 
0.026;-314.1;22.70399999999995; 
0.026;-314.1;22.70399999999995; 
0.026;-314.1;22.599999999999966; 
0.026;-314.1;22.67799999999994; 
0.026;-314.1;22.67799999999994; 
0.026;-314.1;22.651999999999987; 
0.026;-314.1;22.755999999999972; 
0.026;-314.1;22.72999999999996; 
0.026;-314.1;22.67799999999994; 
0.026;-314.1;22.67799999999994; 
0.026;-314.1;22.651999999999987; 
0.026;-314.1;22.67799999999994; 
0.026;-314.1;22.72999999999996; 
0.026;-314.1;22.67799999999994; 
0.026;-314.1;22.67799999999994; 
0.026;-314.1;22.755999999999972; 
0.026;-314.1;22.72999999999996; 
0.026;-314.1;22.67799999999994; 
0.026;-314.1;22.67799999999994; 
0.026;-314.1;22.651999999999987; 
0.026;-314.1;22.651999999999987; 
0.026;-314.1;22.651999999999987; 
0.026;-314.1;22.70399999999995; 
0.026;-314.1;22.625999999999976; 
0.026;-314.1;22.651999999999987; 
0.026;-314.1;22.67799999999994; 
0.026;-314.1;22.72999999999996; 
0.026;-314.1;22.67799999999994; 
0.026;-314.1;22.755999999999972; 
0.026;-314.1;22.651999999999987; 
0.026;-314.1;22.72999999999996; 
0.026;-314.1;22.625999999999976; 
0.026;-314.1;22.67799999999994; 
0.026;-314.1;22.755999999999972; 
0.026;-314.1;22.70399999999995; 
0.026;-314.1;22.67799999999994; 
0.026;-314.1;22.72999999999996; 
0.026;-314.1;22.67799999999994; 
0.026;-314.1;22.67799999999994; 
0.026;-314.1;22.70399999999995; 
0.026;-314.1;22.72999999999996; 
0.026;-314.1;22.755999999999972; 
0.026;-314.1;22.625999999999976; 
0.026;-314.1;22.72999999999996; 
0.026;-314.1;22.807999999999936; 
0.026;-314.1;22.625999999999976; 
0.026;-314.1;22.651999999999987; 
0.026;-314.1;22.72999999999996; 
0.026;-314.1;22.72999999999996; 
0.026;-314.1;22.70399999999995; 
0.026;-314.1;22.651999999999987; 
0.026;-314.1;22.755999999999972; 
0.026;-314.1;22.70399999999995; 
0.026;-314.1;22.651999999999987; 
0.026;-314.1;22.70399999999995; 
0.026;-314.1;22.651999999999987; 
0.026;-314.1;22.651999999999987; 
0.026;-314.1;22.651999999999987; 
0.026;-314.1;22.67799999999994; 
0.026;-314.1;22.72999999999996; 
0.026;-314.1;22.755999999999972; 
0.026;-314.1;22.625999999999976; 
0.026;-314.1;22.625999999999976; 
0.026;-314.1;22.72999999999996; 
0.026;-314.1;22.651999999999987; 
0.026;-314.1;22.72999999999996; 
0.026;-314.1;22.651999999999987; 
